An R Guide For Pols 3800 - 5 Intro to the tidyverse
…
This works because of the shared logic of the tidyverse

Filter
Select
Mutate

filter(.data = penguins, species == "Gentoo")

# A tibble: 124 × 8
   species island bill_length_mm bill_depth_mm flipper_length_mm body_mass_g
   <fct>   <fct>           <dbl>         <dbl>             <int>       <int>
 1 Gentoo  Biscoe           46.1          13.2               211        4500
 2 Gentoo  Biscoe           50            16.3               230        5700
 3 Gentoo  Biscoe           48.7          14.1               210        4450
 4 Gentoo  Biscoe           50            15.2               218        5700
 5 Gentoo  Biscoe           47.6          14.5               215        5400
 6 Gentoo  Biscoe           46.5          13.5               210        4550
 7 Gentoo  Biscoe           45.4          14.6               211        4800
 8 Gentoo  Biscoe           46.7          15.3               219        5200
 9 Gentoo  Biscoe           43.3          13.4               209        4400
10 Gentoo  Biscoe           46.8          15.4               215        5150
# ℹ 114 more rows
# ℹ 2 more variables: sex <fct>, year <int>

select(.data = penguins, species:bill_length_mm)

# A tibble: 344 × 3
   species island    bill_length_mm
   <fct>   <fct>              <dbl>
 1 Adelie  Torgersen           39.1
 2 Adelie  Torgersen           39.5
 3 Adelie  Torgersen           40.3
 4 Adelie  Torgersen           NA  
 5 Adelie  Torgersen           36.7
 6 Adelie  Torgersen           39.3
 7 Adelie  Torgersen           38.9
 8 Adelie  Torgersen           39.2
 9 Adelie  Torgersen           34.1
10 Adelie  Torgersen           42  
# ℹ 334 more rows

mutate(.data = penguins, bill_length_mm_sq = bill_length_mm^2)

# A tibble: 344 × 9
   species island    bill_length_mm bill_depth_mm flipper_length_mm body_mass_g
   <fct>   <fct>              <dbl>         <dbl>             <int>       <int>
 1 Adelie  Torgersen           39.1          18.7               181        3750
 2 Adelie  Torgersen           39.5          17.4               186        3800
 3 Adelie  Torgersen           40.3          18                 195        3250
 4 Adelie  Torgersen           NA            NA                  NA          NA
 5 Adelie  Torgersen           36.7          19.3               193        3450
 6 Adelie  Torgersen           39.3          20.6               190        3650
 7 Adelie  Torgersen           38.9          17.8               181        3625
 8 Adelie  Torgersen           39.2          19.6               195        4675
 9 Adelie  Torgersen           34.1          18.1               193        3475
10 Adelie  Torgersen           42            20.2               190        4250
# ℹ 334 more rows
# ℹ 3 more variables: sex <fct>, year <int>, bill_length_mm_sq <dbl>

Note how each verb has the .data argument in the first position. The pipe takes what’s on the left-hand side and evaluates it as the first argument on the right-hand side, so starwars |> passes the Starwars as the first argument in mutate. This lets chain together multiple operations. In my opinion is easier to decipher than large nested function calls like the left column in favor of a cleaner, easier-to-read version of the code on the right.

 filter(mutate(penguins,
  female = ifelse(sex == "female",
    TRUE, FALSE)),
     species == "Adelie")

# A tibble: 152 × 9
   species island    bill_length_mm bill_depth_mm flipper_length_mm body_mass_g
   <fct>   <fct>              <dbl>         <dbl>             <int>       <int>
 1 Adelie  Torgersen           39.1          18.7               181        3750
 2 Adelie  Torgersen           39.5          17.4               186        3800
 3 Adelie  Torgersen           40.3          18                 195        3250
 4 Adelie  Torgersen           NA            NA                  NA          NA
 5 Adelie  Torgersen           36.7          19.3               193        3450
 6 Adelie  Torgersen           39.3          20.6               190        3650
 7 Adelie  Torgersen           38.9          17.8               181        3625
 8 Adelie  Torgersen           39.2          19.6               195        4675
 9 Adelie  Torgersen           34.1          18.1               193        3475
10 Adelie  Torgersen           42            20.2               190        4250
# ℹ 142 more rows
# ℹ 3 more variables: sex <fct>, year <int>, female <lgl>

penguins |>
filter(species == "Adelie") |>
mutate(female = ifelse(sex == "female", TRUE, FALSE))

# A tibble: 152 × 9
   species island    bill_length_mm bill_depth_mm flipper_length_mm body_mass_g
   <fct>   <fct>              <dbl>         <dbl>             <int>       <int>
 1 Adelie  Torgersen           39.1          18.7               181        3750
 2 Adelie  Torgersen           39.5          17.4               186        3800
 3 Adelie  Torgersen           40.3          18                 195        3250
 4 Adelie  Torgersen           NA            NA                  NA          NA
 5 Adelie  Torgersen           36.7          19.3               193        3450
 6 Adelie  Torgersen           39.3          20.6               190        3650
 7 Adelie  Torgersen           38.9          17.8               181        3625
 8 Adelie  Torgersen           39.2          19.6               195        4675
 9 Adelie  Torgersen           34.1          18.1               193        3475
10 Adelie  Torgersen           42            20.2               190        4250
# ℹ 142 more rows
# ℹ 3 more variables: sex <fct>, year <int>, female <lgl>
…
